Airbnb in NYC with SparkR and Sparkling water
…
#there are several neighbourhoods with single listing, let's remove those - create list of neighbourhoods to keep, we'll filter later, all at once
neighbourhood_gr_keep = neighbourhoods_groups$neighbourhood_group

Neighbourhood

data %>%
  distinct(neighbourhood) %>%
  arrange(neighbourhood) %>% #order alphabetically
  mutate(neighbourhood = tolower(neighbourhood)) %>%
  collect()

## # A tibble: 225 x 1
##    neighbourhood    
##    <chr>            
##  1 2                
##  2 allerton         
##  3 arden heights    
##  4 arrochar         
##  5 arverne          
##  6 astoria          
##  7 bath beach       
##  8 battery park city
##  9 bay ridge        
## 10 bay terrace      
## #  with 215 more rows

#there's many neighbourhoods but again we can see some strange names and it's also possible there will be neighbourhoods with very low number of listings - let's exclude all that have less than 50
(neighbourhoods = data %>%
  group_by(neighbourhood) %>%
  summarise(count = n()) %>%
  filter(count >= 50) %>%
  arrange(desc(count)) %>%
  collect())

## # A tibble: 98 x 2
##    neighbourhood      count
##    <chr>              <dbl>
##  1 Williamsburg        3914
##  2 Bedford-Stuyvesant  3705
##  3 Harlem              2642
##  4 Bushwick            2460
##  5 Upper West Side     1968
##  6 Hell's Kitchen      1951
##  7 East Village        1849
##  8 Upper East Side     1791
##  9 Crown Heights       1560
## 10 Midtown             1541
## #  with 88 more rows
…
